1925247047
2178998933
4281861088
2879108931
388029648
537458211
4282372075
524800
1733355095
1563490050
2205211144
2237189128
2238242834
2241907734
1888537636
1888538660
1888539650
2205258792
2241907238
2242009641
1888588328
1888603654
1888604194
