EN.600.120B+3.5
AS.060.113C-2.5
SA.999.001U/0.0
PH.371.475I+1.5
ME.740.110D-0.0
BU.001.123A/1.5
SA.999.999U/5.5
ME.001.001A+0.0
EN.234.115B-3.5
ED.934.123F+1.0
AS.110.109A+4.0
AS.171.102A+4.0
AS.173.112A-1.0
AS.180.102A-3.0
EN.530.102A/2.0
EN.530.104A/2.0
EN.530.106A+1.0
AS.110.202A/4.0
AS.180.101A/3.0
AS.180.301A/4.5
EN.530.201A/4.0
EN.530.231A+3.0
EN.530.232A/1.0
